Static Exploration – Melbourne Housing
…
# A tibble: 3 × 3
  Type      n   pct
  <fct> <int> <dbl>
1 h     34161 0.705
2 t      4980 0.103
3 u      9292 0.192

# Two-way: Type by Region
(two_way <- mh %>% count(Type, Regionname) %>% group_by(Regionname) %>%
mutate(pct_in_region = n/sum(n)))

# A tibble: 23 × 4
# Groups:   Regionname [8]
   Type  Regionname                     n pct_in_region
   <fct> <fct>                      <int>         <dbl>
 1 h     Eastern Metropolitan        5971        0.787 
 2 h     Eastern Victoria             363        0.971 
 3 h     Northern Metropolitan       9639        0.709 
 4 h     Northern Victoria            444        0.976 
 5 h     South-Eastern Metropolitan  3023        0.754 
 6 h     Southern Metropolitan       6937        0.553 
 7 h     Western Metropolitan        7610        0.786 
 8 h     Western Victoria             174        0.956 
 9 t     Eastern Metropolitan         651        0.0858
10 t     Eastern Victoria               4        0.0107
# ℹ 13 more rows
